<?xml version="1.0" encoding="UTF-8" standalone="no"?>
<!DOCTYPE log SYSTEM "logger.dtd">
<log>
<record>
  <date>2019-07-05T16:20:35</date>
  <millis>1562318435364</millis>
  <sequence>5</sequence>
  <logger>SeleniumWD.SeleniumWD</logger>
  <level>CONFIG</level>
  <class>SeleniumWD.SeleniumWD</class>
  <method>LoadLog</method>
  <thread>33</thread>
  <message>Configuration done.</message>
</record>
<record>
  <date>2019-07-05T16:20:35</date>
  <millis>1562318435364</millis>
  <sequence>6</sequence>
  <logger>SeleniumWD.SeleniumWD</logger>
  <level>FINE</level>
  <class>SeleniumWD.SeleniumWD</class>
  <method>LoadLog</method>
  <thread>33</thread>
  <message>Finer logged</message>
</record>
<record>
  <date>2019-07-05T16:20:35</date>
  <millis>1562318435403</millis>
  <sequence>7</sequence>
  <logger>SeleniumWD.SeleniumWD</logger>
  <level>SEVERE</level>
  <class>SeleniumWD.SeleniumWD</class>
  <method>setBrowser</method>
  <thread>33</thread>
  <message>Error :Check the Test Suite file contentsnull</message>
</record>
<record>
  <date>2019-07-05T16:20:35</date>
  <millis>1562318435405</millis>
  <sequence>8</sequence>
  <logger>SeleniumWD.SeleniumWD</logger>
  <level>SEVERE</level>
  <class>SeleniumWD.SeleniumWD</class>
  <method>findExecTestscript</method>
  <thread>33</thread>
  <message>Error Occured in FindExecTestscript function  TestSuite\Test_Suite.xlsx (The system cannot find the path specified)</message>
</record>
<record>
  <date>2019-07-05T16:20:35</date>
  <millis>1562318435408</millis>
  <sequence>9</sequence>
  <logger>SeleniumWD.SeleniumWD</logger>
  <level>SEVERE</level>
  <class>SeleniumWD.SeleniumWD</class>
  <method>readUtilFile</method>
  <thread>33</thread>
  <message>Could not launch the Browser. Check the browser settings</message>
</record>
</log>
